Supplemental Appendix for PIT Demographics
…
             Meagan Biscamp, Sara Fuetter, and Joseph Montano 

Overall Results (2025)

Age Group Distribution

2023
2025
Combined Years
Change Over Time (Sheltered)
Change Over Time (Unsheltered)
Raw Data

# A tibble: 28 × 6
# Groups:   Year, Shelter Status [4]
   Year  `Shelter Status` `Age Group` `Number of Individuals` Proportion
   <chr> <chr>            <fct>                         <int>      <dbl>
 1 2023  Sheltered        Under 18                        337      0.331
 2 2023  Sheltered        18-24                            87      0.085
 3 2023  Sheltered        25-34                           165      0.162
 4 2023  Sheltered        35-44                           163      0.16 
 5 2023  Sheltered        45-54                           127      0.125
 6 2023  Sheltered        55-64                           108      0.106
 7 2023  Sheltered        65+                              31      0.03 
 8 2023  Unsheltered      Under 18                          6      0.005
 9 2023  Unsheltered      18-24                            43      0.037
10 2023  Unsheltered      25-34                           242      0.21 
# ℹ 18 more rows
# ℹ 1 more variable: Corrected_N <dbl>
…
Race and Ethnicity

2023
2025
Combined Years
Change Over Time (Sheltered)
Change Over Time (Unsheltered)
Raw Data

# A tibble: 39 × 6
# Groups:   Year, ShelterStatus [4]
    Year ShelterStatus Race_Ethnicity_Cleaned  Reported_N Proportion Corrected_N
   <dbl> <chr>         <chr>                        <int>      <dbl>       <dbl>
 1  2023 Sheltered     American Indian/Alaska…          1      0.001           1
 2  2023 Sheltered     Asian                           38      0.037          38
 3  2023 Sheltered     Black/African American         317      0.31          318
 4  2023 Sheltered     Hispanic                       378      0.369         379
 5  2023 Sheltered     Middle Eastern                   2      0.002           2
 6  2023 Sheltered     Multiracial                     82      0.08           82
 7  2023 Sheltered     Native Hawaiian/Other …          1      0.001           1
 8  2023 Sheltered     Refused to Answer               12      0.012          12
 9  2023 Sheltered     Unknown                          1      0.001           1
10  2023 Sheltered     White                          192      0.188         193
# ℹ 29 more rows
…
